%YAML 1.1
%TAG !u! tag:unity3d.com,2011:
--- !u!162 &1
EditorUserSettings:
  m_ObjectHideFlags: 0
  serializedVersion: 4
  m_ConfigSettings:
    RecentlyUsedScenePath-0:
      value: 22424703114646680e0b0227036c6b150503342f3a2d2a7e38271427fb
      flags: 0
    RecentlyUsedScenePath-1:
      value: 22424703114646680e0b0227036c7315001214396304232628254c7df7ee3d2cfb
      flags: 0
    RecentlyUsedScenePath-2:
      value: 22424703114646680e0b0227036c7315001214396304232628255d67acf53a31f6fe
      flags: 0
    RecentlyUsedScenePath-3:
      value: 22424703114646680e0b0227036c7315001214396304232628255d60acf53a31f6fe
      flags: 0
    RecentlyUsedScenePath-4:
      value: 22424703114646680e0b0227036c731500121439630128243f265326ece92021
      flags: 0
    RecentlyUsedScenePath-5:
      value: 22424703114646680e0b0227036c7315001214396304232628255d61acf53a31f6fe
      flags: 0
    RecentlyUsedScenePath-6:
      value: 22424703114646680e0b0227036c7315001214396304232628255d62acf53a31f6fe
      flags: 0
    RecentlyUsedScenePath-7:
      value: 22424703114646680e0b0227036c7315001214396304232628255d66acf53a31f6fe
      flags: 0
    RecentlyUsedScenePath-8:
      value: 22424703114646680e0b0227036c7315001214396304232628255d65acf53a31f6fe
      flags: 0
    RecentlyUsedScenePath-9:
      value: 224247031146466b021a0d361f107b3b59251d39233d3433283a5200f2ec352bead435fbe23f31722c0ce6281d
      flags: 0
    vcSharedLogLevel:
      value: 0d5e400f0650
      flags: 0
  m_VCAutomaticAdd: 1
  m_VCDebugCom: 0
  m_VCDebugCmd: 0
  m_VCDebugOut: 0
  m_SemanticMergeMode: 2
  m_VCShowFailedCheckout: 1
  m_VCOverwriteFailedCheckoutAssets: 1
  m_VCProjectOverlayIcons: 1
  m_VCHierarchyOverlayIcons: 1
  m_VCOtherOverlayIcons: 1
  m_VCAllowAsyncUpdate: 0
